…
The following code: 

* takes the initial `df` data, then
* creates our date-time measure as before, uses the [`select()`](http://dplyr.tidyverse.org/reference/select.html) function to retain only the variables of interest, then
* converts them to wide to long with a new variable `measure` containing an indicator of whether the data are corrected or not and a new variable `value` containing the actual measured (or corrected) value, then
* re-orders the variables so that each date-time pair are in contiguous rows:

```{r, eval=FALSE}
> df %>%
+     mutate(dateTime = str_c(Date, Time, sep = " ", collapse = NULL)) %>%
+     mutate(dateTime = as.POSIXct(dateTime, format = "%m/%d/%Y %H:%M:%S")) %>%
+     select(dateTime, SpCond, SpCond_Corr) %>%
+     gather(key = "measure", value = "value", SpCond, SpCond_Corr) %>%
+     arrange(dateTime)
# A tibble: 3,024 x 3
              dateTime     measure     value
                <dttm>       <chr>     <dbl>
 1 2015-09-18 13:00:52      SpCond 0.7490000
 2 2015-09-18 13:00:52 SpCond_Corr 0.7494559
 3 2015-09-18 13:05:52      SpCond 0.7490000
 4 2015-09-18 13:05:52 SpCond_Corr 0.7495014
 5 2015-09-18 13:10:52      SpCond 0.7500000
 6 2015-09-18 13:10:52 SpCond_Corr 0.7505470
 7 2015-09-18 13:15:52      SpCond 0.7500000
 8 2015-09-18 13:15:52 SpCond_Corr 0.7505925
 9 2015-09-18 13:20:51      SpCond 0.7500000
10 2015-09-18 13:20:51 SpCond_Corr 0.7506379
# ... with 3,014 more rows
```
…
